<define-tag pagetitle>DLA-1591-2 libphp-phpmailer</define-tag>
<define-tag report_date>2018-12-28</define-tag>
<define-tag secrefs>CVE-2018-19296</define-tag>
<define-tag packages>libphp-phpmailer</define-tag>
<define-tag isvulnerable>yes</define-tag>
<define-tag fixed>yes</define-tag>
<define-tag fixed-section>no</define-tag>

#use wml::debian::security

