<define-tag pagetitle>DSA-4442-1 ghostscript</define-tag>
<define-tag report_date>2019-5-12</define-tag>
<define-tag secrefs>CVE-2019-3839</define-tag>
<define-tag packages>ghostscript</define-tag>
<define-tag isvulnerable>yes</define-tag>
<define-tag fixed>yes</define-tag>
<define-tag fixed-section>no</define-tag>

#use wml::debian::security



</dl>
