<define-tag pagetitle>DLA-1893-1 cups</define-tag>
<define-tag report_date>2019-8-22</define-tag>
<define-tag secrefs>CVE-2019-8675 CVE-2019-8696</define-tag>
<define-tag packages>cups</define-tag>
<define-tag isvulnerable>yes</define-tag>
<define-tag fixed>yes</define-tag>
<define-tag fixed-section>no</define-tag>

#use wml::debian::security

