<define-tag pagetitle>DLA-478-1 squid3</define-tag>
<define-tag report_date>2016-5-16</define-tag>
<define-tag secrefs>CVE-2016-4051 CVE-2016-4052 CVE-2016-4053 CVE-2016-4054 CVE-2016-4554 CVE-2016-4555 CVE-2016-4556 Bug#823968</define-tag>
<define-tag packages>squid3</define-tag>
<define-tag isvulnerable>yes</define-tag>
<define-tag fixed>yes</define-tag>
<define-tag fixed-section>no</define-tag>

#use wml::debian::security

