<define-tag pagetitle>DLA-761-1 python-bottle</define-tag>
<define-tag report_date>2016-12-24</define-tag>
<define-tag secrefs>CVE-2016-9964 Bug#848392</define-tag>
<define-tag packages>python-bottle</define-tag>
<define-tag isvulnerable>yes</define-tag>
<define-tag fixed>yes</define-tag>
<define-tag fixed-section>no</define-tag>

#use wml::debian::security

